<svg xmlns="http://www.w3.org/2000/svg" xmlns:xlink="http://www.w3.org/1999/xlink" version="1.1" id="Layer_1" x="0px" y="0px" viewBox="0 0 100 100" xml:space="preserve" class="" style="x:0px;webkit-transform-origin:50px 50px;webkit-perspective-origin:0px 0px;transform-origin:50px 50px;transform:none;r:0px;pointer-events:all;perspective-origin:0px 0px;overflow-y:hidden;overflow-x:hidden;overflow:hidden;display:block"><g class="" style="x:0px;webkit-transform-origin:50px 50px;webkit-perspective-origin:0px 0px;transform-origin:50px 50px;transform:none;r:0px;pointer-events:all;perspective-origin:0px 0px"><g class="" style="x:0px;webkit-transform-origin:50px 50px;webkit-transform:matrix(0.6, 0, 0, 0.6, 0, 0);webkit-perspective-origin:0px 0px;transform-origin:50px 50px;transform:matrix(0.6, 0, 0, 0.6, 0, 0);r:0px;pointer-events:all;perspective-origin:0px 0px"><g class="" style="x:0px;webkit-transform-origin:50px 50px;webkit-perspective-origin:0px 0px;transform-origin:50px 50px;transform:none;r:0px;pointer-events:all;perspective-origin:0px 0px"><g class="" style="webkit-perspective-origin:0px 0px;pointer-events:all;perspective-origin:0px 0px"><style type="text/css" class="ld " style="y:0px;x:0px;webkit-transform-origin:50px 50px;webkit-animation-duration:1s;webkit-animation:1s ease 0s 1 normal none running none;transform-origin:50px 50px;transform:none;r:0px;pointer-events:all;direction:ltr;d:none">.st0{fill:#F4E6C8;} .st1{opacity:0.8;fill:#849B87;} .st2{fill:#D65A62;} .st3{fill:#E15C64;} .st4{fill:#F47E5F;} .st5{fill:#F7B26A;} .st6{fill:#FEE8A2;} .st7{fill:#ACBD81;} .st8{fill:#F5E169;} .st9{fill:#F0AF6B;} .st10{fill:#EA7C60;} .st11{fill:#A8B980;} .st12{fill:#829985;} .st13{fill:#798AAE;} .st14{fill:#8672A7;} .st15{fill:#CC5960;} .st16{fill:#E17A5F;} .st17{fill:#849B87;} .st18{opacity:0.8;fill:#E15C64;} .st19{opacity:0.8;fill:#F7B26A;} .st20{fill:#79A5B5;} .st21{opacity:0.8;fill:#79A5B4;} .st22{fill:#666766;}</style>
<g class="ld " style="y:0px;x:0px;webkit-transform-origin:50px 50px;webkit-perspective-origin:0px 0px;webkit-animation-duration:1s;webkit-animation-delay:0.0384615s;webkit-animation:1s ease 0.0384615s 1 normal none running none;transform-origin:50px 50px;transform:none;r:0px;pointer-events:all;perspective-origin:0px 0px;direction:ltr;d:none"><rect x="10" y="10" class="st3" width="16" height="16" fill="rgb(225, 92, 100)" style="y:10px;x:10px;width:16px;webkit-perspective-origin:0px 0px;webkit-logical-width:16px;webkit-logical-height:16px;r:0px;pointer-events:all;perspective-origin:0px 0px;inline-size:16px;height:16px;fill:rgb(225, 92, 100);block-size:16px"/></g>
<g class="ld " style="y:0px;x:0px;webkit-transform-origin:50px 50px;webkit-perspective-origin:0px 0px;webkit-animation-duration:1s;webkit-animation-delay:0.0769231s;webkit-animation:1s ease 0.0769231s 1 normal none running none;transform-origin:50px 50px;transform:none;r:0px;pointer-events:all;perspective-origin:0px 0px;direction:ltr;d:none"><rect x="10" y="31.3" class="st5" width="16" height="16" fill="rgb(247, 178, 106)" style="y:31.3px;x:10px;width:16px;webkit-perspective-origin:0px 0px;webkit-logical-width:16px;webkit-logical-height:16px;r:0px;pointer-events:all;perspective-origin:0px 0px;inline-size:16px;height:16px;fill:rgb(247, 178, 106);block-size:16px"/></g>
<g class="ld " style="y:0px;x:0px;webkit-transform-origin:50px 50px;webkit-perspective-origin:0px 0px;webkit-animation-duration:1s;webkit-animation-delay:0.115385s;webkit-animation:1s ease 0.115385s 1 normal none running none;transform-origin:50px 50px;transform:none;r:0px;pointer-events:all;perspective-origin:0px 0px;direction:ltr;d:none"><rect x="10" y="52.7" class="st4" width="16" height="16" fill="rgb(244, 126, 95)" style="y:52.7px;x:10px;width:16px;webkit-perspective-origin:0px 0px;webkit-logical-width:16px;webkit-logical-height:16px;r:0px;pointer-events:all;perspective-origin:0px 0px;inline-size:16px;height:16px;fill:rgb(244, 126, 95);block-size:16px"/></g>
<g class="ld " style="y:0px;x:0px;webkit-transform-origin:50px 50px;webkit-perspective-origin:0px 0px;webkit-animation-duration:1s;webkit-animation-delay:0.153846s;webkit-animation:1s ease 0.153846s 1 normal none running none;transform-origin:50px 50px;transform:none;r:0px;pointer-events:all;perspective-origin:0px 0px;direction:ltr;d:none"><rect x="10" y="74" class="st7" width="16" height="16" fill="rgb(172, 189, 129)" style="y:74px;x:10px;width:16px;webkit-perspective-origin:0px 0px;webkit-logical-width:16px;webkit-logical-height:16px;r:0px;pointer-events:all;perspective-origin:0px 0px;inline-size:16px;height:16px;fill:rgb(172, 189, 129);block-size:16px"/></g>
<g class="ld " style="y:0px;x:0px;webkit-transform-origin:50px 50px;webkit-perspective-origin:0px 0px;webkit-animation-duration:1s;webkit-animation-delay:0.192308s;webkit-animation:1s ease 0.192308s 1 normal none running none;transform-origin:50px 50px;transform:none;r:0px;pointer-events:all;perspective-origin:0px 0px;direction:ltr;d:none"><rect x="31.3" y="10" class="st4" width="16" height="16" fill="rgb(244, 126, 95)" style="y:10px;x:31.3px;width:16px;webkit-perspective-origin:0px 0px;webkit-logical-width:16px;webkit-logical-height:16px;r:0px;pointer-events:all;perspective-origin:0px 0px;inline-size:16px;height:16px;fill:rgb(244, 126, 95);block-size:16px"/></g>
<g class="ld " style="y:0px;x:0px;webkit-transform-origin:50px 50px;webkit-perspective-origin:0px 0px;webkit-animation-duration:1s;webkit-animation-delay:0.230769s;webkit-animation:1s ease 0.230769s 1 normal none running none;transform-origin:50px 50px;transform:none;r:0px;pointer-events:all;perspective-origin:0px 0px;direction:ltr;d:none"><rect x="31.3" y="31.3" class="st7" width="16" height="16" fill="rgb(172, 189, 129)" style="y:31.3px;x:31.3px;width:16px;webkit-perspective-origin:0px 0px;webkit-logical-width:16px;webkit-logical-height:16px;r:0px;pointer-events:all;perspective-origin:0px 0px;inline-size:16px;height:16px;fill:rgb(172, 189, 129);block-size:16px"/></g>
<g class="ld " style="y:0px;x:0px;webkit-transform-origin:50px 50px;webkit-perspective-origin:0px 0px;webkit-animation-duration:1s;webkit-animation-delay:0.269231s;webkit-animation:1s ease 0.269231s 1 normal none running none;transform-origin:50px 50px;transform:none;r:0px;pointer-events:all;perspective-origin:0px 0px;direction:ltr;d:none"><rect x="31.3" y="52.7" class="st5" width="16" height="16" fill="rgb(247, 178, 106)" style="y:52.7px;x:31.3px;width:16px;webkit-perspective-origin:0px 0px;webkit-logical-width:16px;webkit-logical-height:16px;r:0px;pointer-events:all;perspective-origin:0px 0px;inline-size:16px;height:16px;fill:rgb(247, 178, 106);block-size:16px"/></g>
<g class="ld " style="y:0px;x:0px;webkit-transform-origin:50px 50px;webkit-perspective-origin:0px 0px;webkit-animation-duration:1s;webkit-animation-delay:0.307692s;webkit-animation:1s ease 0.307692s 1 normal none running none;transform-origin:50px 50px;transform:none;r:0px;pointer-events:all;perspective-origin:0px 0px;direction:ltr;d:none"><rect x="31.3" y="74" class="st3" width="16" height="16" fill="rgb(225, 92, 100)" style="y:74px;x:31.3px;width:16px;webkit-perspective-origin:0px 0px;webkit-logical-width:16px;webkit-logical-height:16px;r:0px;pointer-events:all;perspective-origin:0px 0px;inline-size:16px;height:16px;fill:rgb(225, 92, 100);block-size:16px"/></g>
<g class="ld " style="y:0px;x:0px;webkit-transform-origin:50px 50px;webkit-perspective-origin:0px 0px;webkit-animation-duration:1s;webkit-animation-delay:0.346154s;webkit-animation:1s ease 0.346154s 1 normal none running none;transform-origin:50px 50px;transform:none;r:0px;pointer-events:all;perspective-origin:0px 0px;direction:ltr;d:none"><rect x="52.7" y="10" class="st5" width="16" height="16" fill="rgb(247, 178, 106)" style="y:10px;x:52.7px;width:16px;webkit-perspective-origin:0px 0px;webkit-logical-width:16px;webkit-logical-height:16px;r:0px;pointer-events:all;perspective-origin:0px 0px;inline-size:16px;height:16px;fill:rgb(247, 178, 106);block-size:16px"/></g>
<g class="ld " style="y:0px;x:0px;webkit-transform-origin:50px 50px;webkit-perspective-origin:0px 0px;webkit-animation-duration:1s;webkit-animation-delay:0.384615s;webkit-animation:1s ease 0.384615s 1 normal none running none;transform-origin:50px 50px;transform:none;r:0px;pointer-events:all;perspective-origin:0px 0px;direction:ltr;d:none"><rect x="52.7" y="31.3" class="st3" width="16" height="16" fill="rgb(225, 92, 100)" style="y:31.3px;x:52.7px;width:16px;webkit-perspective-origin:0px 0px;webkit-logical-width:16px;webkit-logical-height:16px;r:0px;pointer-events:all;perspective-origin:0px 0px;inline-size:16px;height:16px;fill:rgb(225, 92, 100);block-size:16px"/></g>
<g class="ld " style="y:0px;x:0px;webkit-transform-origin:50px 50px;webkit-perspective-origin:0px 0px;webkit-animation-duration:1s;webkit-animation-delay:0.423077s;webkit-animation:1s ease 0.423077s 1 normal none running none;transform-origin:50px 50px;transform:none;r:0px;pointer-events:all;perspective-origin:0px 0px;direction:ltr;d:none"><rect x="52.7" y="52.7" class="st7" width="16" height="16" fill="rgb(172, 189, 129)" style="y:52.7px;x:52.7px;width:16px;webkit-perspective-origin:0px 0px;webkit-logical-width:16px;webkit-logical-height:16px;r:0px;pointer-events:all;perspective-origin:0px 0px;inline-size:16px;height:16px;fill:rgb(172, 189, 129);block-size:16px"/></g>
<g class="ld " style="y:0px;x:0px;webkit-transform-origin:50px 50px;webkit-perspective-origin:0px 0px;webkit-animation-duration:1s;webkit-animation-delay:0.461538s;webkit-animation:1s ease 0.461538s 1 normal none running none;transform-origin:50px 50px;transform:none;r:0px;pointer-events:all;perspective-origin:0px 0px;direction:ltr;d:none"><rect x="52.7" y="74" class="st4" width="16" height="16" fill="rgb(244, 126, 95)" style="y:74px;x:52.7px;width:16px;webkit-perspective-origin:0px 0px;webkit-logical-width:16px;webkit-logical-height:16px;r:0px;pointer-events:all;perspective-origin:0px 0px;inline-size:16px;height:16px;fill:rgb(244, 126, 95);block-size:16px"/></g>
<g class="ld " style="y:0px;x:0px;webkit-transform-origin:50px 50px;webkit-perspective-origin:0px 0px;webkit-animation-duration:1s;webkit-animation-delay:0.5s;webkit-animation:1s ease 0.5s 1 normal none running none;transform-origin:50px 50px;transform:none;r:0px;pointer-events:all;perspective-origin:0px 0px;direction:ltr;d:none"><rect x="74" y="10" class="st7" width="16" height="16" fill="rgb(172, 189, 129)" style="y:10px;x:74px;width:16px;webkit-perspective-origin:0px 0px;webkit-logical-width:16px;webkit-logical-height:16px;r:0px;pointer-events:all;perspective-origin:0px 0px;inline-size:16px;height:16px;fill:rgb(172, 189, 129);block-size:16px"/></g>
<g class="ld " style="y:0px;x:0px;webkit-transform-origin:50px 50px;webkit-perspective-origin:0px 0px;webkit-animation-duration:1s;webkit-animation-delay:0.538462s;webkit-animation:1s ease 0.538462s 1 normal none running none;transform-origin:50px 50px;transform:none;r:0px;pointer-events:all;perspective-origin:0px 0px;direction:ltr;d:none"><rect x="74" y="31.3" class="st4" width="16" height="16" fill="rgb(244, 126, 95)" style="y:31.3px;x:74px;width:16px;webkit-perspective-origin:0px 0px;webkit-logical-width:16px;webkit-logical-height:16px;r:0px;pointer-events:all;perspective-origin:0px 0px;inline-size:16px;height:16px;fill:rgb(244, 126, 95);block-size:16px"/></g>
<g class="ld " style="y:0px;x:0px;webkit-transform-origin:50px 50px;webkit-perspective-origin:0px 0px;webkit-animation-duration:1s;webkit-animation-delay:0.576923s;webkit-animation:1s ease 0.576923s 1 normal none running none;transform-origin:50px 50px;transform:none;r:0px;pointer-events:all;perspective-origin:0px 0px;direction:ltr;d:none"><rect x="74" y="52.7" class="st3" width="16" height="16" fill="rgb(225, 92, 100)" style="y:52.7px;x:74px;width:16px;webkit-perspective-origin:0px 0px;webkit-logical-width:16px;webkit-logical-height:16px;r:0px;pointer-events:all;perspective-origin:0px 0px;inline-size:16px;height:16px;fill:rgb(225, 92, 100);block-size:16px"/></g>
<g class="ld " style="y:0px;x:0px;webkit-transform-origin:50px 50px;webkit-perspective-origin:0px 0px;webkit-animation-duration:1s;webkit-animation-delay:0.615385s;webkit-animation:1s ease 0.615385s 1 normal none running none;transform-origin:50px 50px;transform:none;r:0px;pointer-events:all;perspective-origin:0px 0px;direction:ltr;d:none"><rect x="74" y="74" class="st5" width="16" height="16" fill="rgb(247, 178, 106)" style="y:74px;x:74px;width:16px;webkit-perspective-origin:0px 0px;webkit-logical-width:16px;webkit-logical-height:16px;r:0px;pointer-events:all;perspective-origin:0px 0px;inline-size:16px;height:16px;fill:rgb(247, 178, 106);block-size:16px"/></g>
<metadata xmlns:d="https://loading.io/stock/" class="ld " style="y:0px;x:0px;webkit-transform-origin:50px 50px;webkit-animation-duration:1s;webkit-animation-delay:0.653846s;webkit-animation:1s ease 0.653846s 1 normal none running none;transform-origin:50px 50px;transform:none;r:0px;pointer-events:all;direction:ltr;d:none"><d:name class="ld " style="y:0px;x:0px;webkit-transform-origin:50px 50px;webkit-animation-duration:1s;webkit-animation-delay:0.692308s;webkit-animation:1s ease 0.692308s 1 normal none running none;transform-origin:50px 50px;transform:none;r:0px;pointer-events:all;direction:ltr;d:none">grid</d:name>


<d:tags class="ld " style="y:0px;x:0px;webkit-transform-origin:50px 50px;webkit-animation-duration:1s;webkit-animation-delay:0.730769s;webkit-animation:1s ease 0.730769s 1 normal none running none;transform-origin:50px 50px;transform:none;r:0px;pointer-events:all;direction:ltr;d:none">cell,block,rectangle,street,app,list,array,table,ghost buster,grid,spinner</d:tags>


<d:license class="ld " style="y:0px;x:0px;webkit-transform-origin:50px 50px;webkit-animation-duration:1s;webkit-animation-delay:0.769231s;webkit-animation:1s ease 0.769231s 1 normal none running none;transform-origin:50px 50px;transform:none;r:0px;pointer-events:all;direction:ltr;d:none">cc0</d:license>


<d:slug class="ld " style="y:0px;x:0px;webkit-transform-origin:50px 50px;webkit-animation-duration:1s;webkit-animation-delay:0.807692s;webkit-animation:1s ease 0.807692s 1 normal none running none;transform-origin:50px 50px;transform:none;r:0px;pointer-events:all;direction:ltr;d:none">seudzb</d:slug></metadata></g></g></g></g>
<style type="text/css" class="ld " style="y:0px;x:0px;webkit-transform-origin:50px 50px;webkit-animation-duration:1s;webkit-animation-delay:0.846154s;webkit-animation:1s ease 0.846154s 1 normal none running none;transform-origin:50px 50px;transform:none;r:0px;pointer-events:all;direction:ltr;d:none">@keyframes ldt-bounce-in {
  0% {
    -webkit-transform: scale(0);
    transform: scale(0);
  }
  5% {
    -webkit-transform: scale(0.0846);
    transform: scale(0.0846);
  }
  6% {
    -webkit-transform: scale(0.191);
    transform: scale(0.191);
  }
  7% {
    -webkit-transform: scale(0.3255);
    transform: scale(0.3255);
  }
  8% {
    -webkit-transform: scale(0.4804);
    transform: scale(0.4804);
  }
  9% {
    -webkit-transform: scale(0.646);
    transform: scale(0.646);
  }
  10% {
    -webkit-transform: scale(0.8116);
    transform: scale(0.8116);
  }
  11% {
    -webkit-transform: scale(0.9665);
    transform: scale(0.9665);
  }
  12% {
    -webkit-transform: scale(1.1);
    transform: scale(1.1);
  }
  13% {
    -webkit-transform: scale(1.2069);
    transform: scale(1.2069);
  }
  14% {
    -webkit-transform: scale(1.2796);
    transform: scale(1.2796);
  }
  19% {
    -webkit-transform: scale(1.1558);
    transform: scale(1.1558);
  }
  20% {
    -webkit-transform: scale(1.07);
    transform: scale(1.07);
  }
  21% {
    -webkit-transform: scale(0.9823);
    transform: scale(0.9823);
  }
  22% {
    -webkit-transform: scale(0.901);
    transform: scale(0.901);
  }
  23% {
    -webkit-transform: scale(0.8328);
    transform: scale(0.8328);
  }
  25% {
    -webkit-transform: scale(0.7551);
    transform: scale(0.7551);
  }
  29% {
    -webkit-transform: scale(0.8516);
    transform: scale(0.8516);
  }
  31% {
    -webkit-transform: scale(0.973);
    transform: scale(0.973);
  }
  33% {
    -webkit-transform: scale(1.0857);
    transform: scale(1.0857);
  }
  35% {
    -webkit-transform: scale(1.1538);
    transform: scale(1.1538);
  }
  40% {
    -webkit-transform: scale(1.0771);
    transform: scale(1.0771);
  }
  42% {
    -webkit-transform: scale(0.9954);
    transform: scale(0.9954);
  }
  45% {
    -webkit-transform: scale(0.9057);
    transform: scale(0.9057);
  }
  52% {
    -webkit-transform: scale(0.9908);
    transform: scale(0.9908);
  }
  56% {
    -webkit-transform: scale(1.0623);
    transform: scale(1.0623);
  }
  64% {
    -webkit-transform: scale(0.9845);
    transform: scale(0.9845);
  }
  100% {
    -webkit-transform: scale(1);
    transform: scale(1);
  }
}
@-webkit-keyframes ldt-bounce-in {
  0% {
    -webkit-transform: scale(0);
    transform: scale(0);
  }
  5% {
    -webkit-transform: scale(0.0846);
    transform: scale(0.0846);
  }
  6% {
    -webkit-transform: scale(0.191);
    transform: scale(0.191);
  }
  7% {
    -webkit-transform: scale(0.3255);
    transform: scale(0.3255);
  }
  8% {
    -webkit-transform: scale(0.4804);
    transform: scale(0.4804);
  }
  9% {
    -webkit-transform: scale(0.646);
    transform: scale(0.646);
  }
  10% {
    -webkit-transform: scale(0.8116);
    transform: scale(0.8116);
  }
  11% {
    -webkit-transform: scale(0.9665);
    transform: scale(0.9665);
  }
  12% {
    -webkit-transform: scale(1.1);
    transform: scale(1.1);
  }
  13% {
    -webkit-transform: scale(1.2069);
    transform: scale(1.2069);
  }
  14% {
    -webkit-transform: scale(1.2796);
    transform: scale(1.2796);
  }
  19% {
    -webkit-transform: scale(1.1558);
    transform: scale(1.1558);
  }
  20% {
    -webkit-transform: scale(1.07);
    transform: scale(1.07);
  }
  21% {
    -webkit-transform: scale(0.9823);
    transform: scale(0.9823);
  }
  22% {
    -webkit-transform: scale(0.901);
    transform: scale(0.901);
  }
  23% {
    -webkit-transform: scale(0.8328);
    transform: scale(0.8328);
  }
  25% {
    -webkit-transform: scale(0.7551);
    transform: scale(0.7551);
  }
  29% {
    -webkit-transform: scale(0.8516);
    transform: scale(0.8516);
  }
  31% {
    -webkit-transform: scale(0.973);
    transform: scale(0.973);
  }
  33% {
    -webkit-transform: scale(1.0857);
    transform: scale(1.0857);
  }
  35% {
    -webkit-transform: scale(1.1538);
    transform: scale(1.1538);
  }
  40% {
    -webkit-transform: scale(1.0771);
    transform: scale(1.0771);
  }
  42% {
    -webkit-transform: scale(0.9954);
    transform: scale(0.9954);
  }
  45% {
    -webkit-transform: scale(0.9057);
    transform: scale(0.9057);
  }
  52% {
    -webkit-transform: scale(0.9908);
    transform: scale(0.9908);
  }
  56% {
    -webkit-transform: scale(1.0623);
    transform: scale(1.0623);
  }
  64% {
    -webkit-transform: scale(0.9845);
    transform: scale(0.9845);
  }
  100% {
    -webkit-transform: scale(1);
    transform: scale(1);
  }
}
.ldt-bounce-in {
  -webkit-transform: scale(0);
  transform: scale(0);
  -webkit-animation: ldt-bounce-in 1s ease-out forwards;
  animation: ldt-bounce-in 1s ease-out forwards;
}</style></svg>