<svg xmlns="http://www.w3.org/2000/svg" xmlns:xlink="http://www.w3.org/1999/xlink" version="1.1" id="_1" x="0px" y="0px" viewBox="0 0 100 100" xml:space="preserve" class="" style="x:0px;webkit-transform-origin:50px 50px;webkit-perspective-origin:0px 0px;transform-origin:50px 50px;transform:none;r:0px;pointer-events:all;perspective-origin:0px 0px;overflow-y:hidden;overflow-x:hidden;overflow:hidden;display:block"><g class="" style="x:0px;webkit-transform-origin:50px 50px;webkit-perspective-origin:0px 0px;transform-origin:50px 50px;transform:none;r:0px;pointer-events:all;perspective-origin:0px 0px"><g class="" style="x:0px;webkit-transform-origin:50px 50px;webkit-transform:matrix(0.6, 0, 0, 0.6, 0, 0);webkit-perspective-origin:0px 0px;transform-origin:50px 50px;transform:matrix(0.6, 0, 0, 0.6, 0, 0);r:0px;pointer-events:all;perspective-origin:0px 0px"><g class="" style="x:0px;webkit-transform-origin:50px 50px;webkit-perspective-origin:0px 0px;transform-origin:50px 50px;transform:none;r:0px;pointer-events:all;perspective-origin:0px 0px"><g class="" style="webkit-perspective-origin:0px 0px;pointer-events:all;perspective-origin:0px 0px"><style type="text/css" class="ld " style="y:0px;x:0px;webkit-transform-origin:50px 50px;webkit-animation-duration:1s;webkit-animation-delay:-1s;webkit-animation:1s ease -1s 1 normal none running none;transform-origin:50px 50px;transform:none;r:0px;pointer-events:all;direction:ltr;d:none">.st0{fill:#F5E6C8;} .st1{fill:#F47E60;} .st2{fill:#C33737;} .st3{fill:#E0E0E0;} .st4{fill:#333333;} .st5{fill:#77A4BD;} .st6{fill:#A0C8D7;} .st7{fill:#666666;} .st8{fill:none;stroke:#E0E0E0;stroke-width:6;stroke-miterlimit:10;stroke-dasharray:5,5;} .st9{fill:#A0C8D7;stroke:#333333;stroke-width:2.6608;stroke-linejoin:round;stroke-miterlimit:10;} .st10{fill:#77A4BD;stroke:#333333;stroke-width:2.6608;stroke-linejoin:round;stroke-miterlimit:10;} .st11{fill:#E0E0E0;stroke:#333333;stroke-width:2.6608;stroke-linejoin:round;stroke-miterlimit:10;} .st12{fill:#666666;stroke:#333333;stroke-width:2.6608;stroke-linejoin:round;stroke-miterlimit:10;} .st13{fill:#E15B64;stroke:#000000;stroke-width:2.8604;stroke-miterlimit:10;} .st14{fill:none;stroke:#000000;stroke-width:7.2297;stroke-miterlimit:10;} .st15{fill:none;stroke:#333333;stroke-width:5;stroke-linecap:round;stroke-miterlimit:10;} .st16{fill:#F8B26A;stroke:#333333;stroke-width:3;stroke-miterlimit:10;} .st17{fill:#F5E6C8;stroke:#000000;stroke-width:3;stroke-linejoin:round;stroke-miterlimit:10;} .st18{fill:#F5E6C8;stroke:#000000;stroke-width:3;stroke-miterlimit:10;} .st19{fill:#FFFFFF;stroke:#000000;stroke-width:6;stroke-miterlimit:10;} .st20{fill:#666666;stroke:#333333;stroke-width:2.8414;} .st21{fill:#EEF4DC;stroke:#333333;stroke-width:4;} .st22{fill:#FFFFFF;stroke:#000000;stroke-width:5;stroke-miterlimit:10;} .st23{fill:#32AAB4;stroke:#000000;stroke-width:5;stroke-miterlimit:10;} .st24{fill:none;stroke:#FFFFFF;stroke-width:4;stroke-linecap:round;stroke-linejoin:round;} .st25{fill:#FFFFFF;} .st26{fill:#F8EAEC;stroke:#FFFFFF;} .st27{fill:#FFFFFF;stroke:#221E1F;stroke-width:8;stroke-miterlimit:10;} .st28{fill:#221E1F;} .st29{fill:#E90C59;stroke:#333333;stroke-width:4;} .st30{fill:#FE718D;stroke:#333333;stroke-width:4;} .st31{fill:#46DFF0;} .st32{fill:#03AFF3;stroke:#46DFF0;stroke-width:5;stroke-linecap:round;} .st33{fill:#EEF4DC;} .st34{fill:#E90C59;stroke:#E90C59;stroke-width:2;} .st35{fill:#FE718D;stroke:#FE718D;stroke-width:2;} .st36{fill:none;stroke:#46DFF0;stroke-width:5;stroke-linecap:round;} .st37{fill:#EBA523;stroke:#333333;stroke-width:4;stroke-linecap:round;stroke-linejoin:round;} .st38{fill:#E0E0E0;stroke:#333333;stroke-width:4;stroke-linecap:round;} .st39{fill:#F5E6C8;stroke:#333333;stroke-width:4;stroke-linecap:round;stroke-linejoin:round;} .st40{fill:#333333;stroke:#333333;stroke-width:4;stroke-linecap:round;stroke-linejoin:round;} .st41{fill:none;stroke:#333333;stroke-width:4;stroke-linecap:round;stroke-linejoin:round;} .st42{fill:#E0E0E0;stroke:#333333;stroke-width:3.0801;stroke-linecap:round;} .st43{fill:#EBA523;stroke:#333333;stroke-width:2.6855;stroke-linecap:round;stroke-linejoin:round;} .st44{fill:#E0E0E0;stroke:#333333;stroke-width:2.6855;stroke-linecap:round;} .st45{fill:#F5E6C8;stroke:#333333;stroke-width:2.6855;stroke-linecap:round;stroke-linejoin:round;} .st46{fill:#333333;stroke:#333333;stroke-width:2.6855;stroke-linecap:round;stroke-linejoin:round;} .st47{fill:none;stroke:#333333;stroke-width:2.6855;stroke-linecap:round;stroke-linejoin:round;} .st48{fill:#E0E0E0;stroke:#333333;stroke-width:3.3468;stroke-linecap:round;} .st49{fill:#666666;stroke:#333333;stroke-width:2.672;} .st50{fill:#E0E0E0;stroke:#333333;stroke-width:3.9;stroke-linecap:round;} .st51{fill:#666666;stroke:#333333;stroke-width:2.621;} .st52{fill:#333333;stroke:#333333;stroke-width:3.0406;} .st53{fill:#E0E0E0;stroke:#333333;stroke-width:2.8414;} .st54{fill:none;stroke:#333333;stroke-width:2.9737;} .st55{fill:#1BD112;} .st56{fill:none;} .st57{fill:#666666;stroke:#000000;stroke-width:3;stroke-miterlimit:10;} .st58{fill:#333333;stroke:#000000;stroke-width:3;stroke-miterlimit:10;} .st59{fill:#77A4BD;stroke:#333333;stroke-width:5;} .st60{fill:none;stroke:#000000;stroke-width:2.552;stroke-miterlimit:10;} .st61{fill:#4D4D4D;} .st62{fill:#E15B64;stroke:#000000;stroke-width:3;stroke-miterlimit:10;} .st63{fill:#F5E169;stroke:#000000;stroke-width:3;stroke-miterlimit:10;} .st64{fill:#ABBD81;} .st65{fill:#494B32;} .st66{fill:#A0C8D7;stroke:#000000;stroke-width:3;stroke-miterlimit:10;} .st67{fill:#77A4BD;stroke:#000000;stroke-width:3;stroke-miterlimit:10;} .st68{fill:#F47E60;stroke:#000000;stroke-width:3;stroke-miterlimit:10;} .st69{fill:#E0E0E0;stroke:#000000;stroke-width:3;stroke-linejoin:round;stroke-miterlimit:10;} .st70{fill:#666666;stroke:#000000;stroke-width:3;stroke-linejoin:round;stroke-miterlimit:10;} .st71{fill:#66503A;stroke:#000000;stroke-width:3;stroke-linejoin:round;stroke-miterlimit:10;} .st72{fill:#E0E0E0;stroke:#333333;stroke-width:3;stroke-miterlimit:10;} .st73{fill:#666666;stroke:#333333;stroke-width:3;stroke-miterlimit:10;} .st74{fill:#FFFFFF;stroke:#333333;stroke-width:3;stroke-miterlimit:10;} .st75{fill:none;stroke:#333333;stroke-width:3;stroke-miterlimit:10;} .st76{fill:#F5E6C8;stroke:#333333;stroke-width:3;stroke-miterlimit:10;} .st77{fill:#849B87;stroke:#000000;stroke-width:3;stroke-miterlimit:10;} .st78{fill:#F8B26A;stroke:#000000;stroke-width:3;stroke-miterlimit:10;} .st79{fill:#E15B64;} .st80{fill:#F5E6C8;stroke:#333333;stroke-width:8;stroke-miterlimit:10;} .st81{stroke:#000000;stroke-width:8;stroke-miterlimit:10;} .st82{fill:#666666;stroke:#333333;stroke-width:5;stroke-miterlimit:10;} .st83{fill:#E0E0E0;stroke:#333333;stroke-width:5;stroke-miterlimit:10;} .st84{fill:#E0E0E0;stroke:#000000;stroke-width:5.7838;stroke-miterlimit:10;} .st85{fill:#F47E60;stroke:#000000;stroke-width:5.7838;stroke-miterlimit:10;} .st86{fill:#F5E6C8;stroke:#000000;stroke-width:5.6519;stroke-miterlimit:10;} .st87{fill:none;stroke:#333333;stroke-width:5;stroke-miterlimit:10;} .st88{fill:#E0E0E0;stroke:#333333;stroke-width:4;stroke-miterlimit:10;} .st89{fill:#F47E60;stroke:#333333;stroke-width:4;stroke-miterlimit:10;} .st90{fill:#F5E6C8;stroke:#333333;stroke-width:4.0258;stroke-miterlimit:10;} .st91{fill:#66503A;stroke:#333333;stroke-width:4.0258;stroke-miterlimit:10;} .st92{fill:none;stroke:#333333;stroke-width:3.7219;stroke-miterlimit:10;} .st93{fill:none;stroke:#333333;stroke-width:4.881;stroke-miterlimit:10;} .st94{fill:#E15B64;stroke:#333333;stroke-width:4.6426;stroke-miterlimit:10;} .st95{fill:#F47E60;stroke:#333333;stroke-width:4.6426;stroke-miterlimit:10;} .st96{fill:#F8B26A;stroke:#333333;stroke-width:4.6426;stroke-miterlimit:10;} .st97{fill:#849B87;} .st98{fill:#F8B26A;} .st99{fill:#C33737;stroke:#000000;stroke-width:2.8604;stroke-miterlimit:10;} .st100{fill:#C33737;stroke:#000000;stroke-width:2.3193;stroke-miterlimit:10;} .st101{fill:#53BBEA;} .st102{fill:#DA5548;} .st103{fill:#F9CF5A;} .st104{fill:#67A648;} .st105{fill:#3790CE;} .st106{fill:#B93626;} .st107{fill:#8FD5E0;} .st108{fill:#E0782B;} .st109{fill:#5B9CC6;} .st110{fill:#871B19;} .st111{fill:#ED483B;} .st112{fill:#CACACA;} .st113{fill:#4B84C4;} .st114{fill:#C23D2B;} .st115{fill:#EBEBEB;} .st116{fill:#FFFFFF;stroke:#333333;stroke-width:2.5574;stroke-linejoin:round;stroke-miterlimit:10;} .st117{fill:#A3A3A3;} .st118{fill:none;stroke:#666666;stroke-width:8;stroke-miterlimit:10;} .st119{fill:none;stroke:#333333;stroke-width:8;stroke-miterlimit:10;} .st120{fill:none;stroke:#C33737;stroke-width:5.1949;stroke-miterlimit:10;} .st121{fill:#FFDC6C;} .st122{fill:#F5E169;} .st123{fill:none;stroke:#F5E169;stroke-miterlimit:10;} .st124{fill:#8A8A8A;} .st125{fill:#999999;} .st126{fill:#4A3827;} .st127{fill:#66503A;} .st128{fill:#C69C6D;} .st129{fill:#E0E0E0;stroke:#000000;stroke-width:3.7234;stroke-miterlimit:10;} .st130{fill:none;stroke:#000000;stroke-width:4;stroke-linecap:round;stroke-miterlimit:10;} .st131{fill:#E0E0E0;stroke:#333333;stroke-width:3.7234;stroke-miterlimit:10;} .st132{fill:none;stroke:#333333;stroke-width:4;stroke-linecap:round;stroke-miterlimit:10;} .st133{fill:#983733;} .st134{fill:#AAAAAA;}</style>
<g class="ld " style="y:0px;x:0px;webkit-transform-origin:50px 50px;webkit-perspective-origin:0px 0px;webkit-animation-duration:1s;webkit-animation-delay:-0.909091s;webkit-animation:1s ease -0.909091s 1 normal none running none;transform-origin:50px 50px;transform:none;r:0px;pointer-events:all;perspective-origin:0px 0px;direction:ltr;d:none"><path d="M87.2,42.9l2.8-9.4H71.5l5.4-18.4h-9.5L62,33.5H47.7l5.4-18.4h-9.5l-5.4,18.4H19.7L17,42.9h18.5l-4.2,14.2H12.8L10,66.5 h18.5l-5.4,18.4h9.5L38,66.5h14.2l-5.4,18.4h9.5l5.4-18.4h18.5l2.8-9.4H64.5l4.2-14.2H87.2z M55,57.1H40.8L45,42.9h14.2L55,57.1z" fill="#46dff0" class="" style="webkit-perspective-origin:0px 0px;r:0px;pointer-events:all;perspective-origin:0px 0px;fill:rgb(70, 223, 240);d:path('M 87.2 42.9 L 90 33.5 H 71.5 L 76.9 15.1 H 67.4 L 62 33.5 H 47.7 L 53.1 15.1 H 43.6 L 38.2 33.5 H 19.7 L 17 42.9 H 35.5 L 31.3 57.1 H 12.8 L 10 66.5 H 28.5 L 23.1 84.9 H 32.6 L 38 66.5 H 52.2 L 46.8 84.9 H 56.3 L 61.7 66.5 H 80.2 L 83 57.1 H 64.5 L 68.7 42.9 H 87.2 Z M 55 57.1 H 40.8 L 45 42.9 H 59.2 L 55 57.1 Z')"/></g>
<metadata xmlns:d="https://loading.io/stock/" class="ld " style="y:0px;x:0px;webkit-transform-origin:50px 50px;webkit-animation-duration:1s;webkit-animation-delay:-0.818182s;webkit-animation:1s ease -0.818182s 1 normal none running none;transform-origin:50px 50px;transform:none;r:0px;pointer-events:all;direction:ltr;d:none"><d:name class="ld " style="y:0px;x:0px;webkit-transform-origin:50px 50px;webkit-animation-duration:1s;webkit-animation-delay:-0.727273s;webkit-animation:1s ease -0.727273s 1 normal none running none;transform-origin:50px 50px;transform:none;r:0px;pointer-events:all;direction:ltr;d:none">sharp</d:name>


<d:tags class="ld " style="y:0px;x:0px;webkit-transform-origin:50px 50px;webkit-animation-duration:1s;webkit-animation-delay:-0.636364s;webkit-animation:1s ease -0.636364s 1 normal none running none;transform-origin:50px 50px;transform:none;r:0px;pointer-events:all;direction:ltr;d:none">hashtag,label,tag,social,twitter,sharp,web application</d:tags>


<d:license class="ld " style="y:0px;x:0px;webkit-transform-origin:50px 50px;webkit-animation-duration:1s;webkit-animation-delay:-0.545455s;webkit-animation:1s ease -0.545455s 1 normal none running none;transform-origin:50px 50px;transform:none;r:0px;pointer-events:all;direction:ltr;d:none">cc0</d:license>


<d:slug class="ld " style="y:0px;x:0px;webkit-transform-origin:50px 50px;webkit-animation-duration:1s;webkit-animation-delay:-0.454545s;webkit-animation:1s ease -0.454545s 1 normal none running none;transform-origin:50px 50px;transform:none;r:0px;pointer-events:all;direction:ltr;d:none">jrqo5i</d:slug></metadata></g></g></g></g>
<style type="text/css" class="ld " style="y:0px;x:0px;webkit-transform-origin:50px 50px;webkit-animation-duration:1s;webkit-animation-delay:-0.363636s;webkit-animation:1s ease -0.363636s 1 normal none running none;transform-origin:50px 50px;transform:none;r:0px;pointer-events:all;direction:ltr;d:none">@keyframes ld-breath {
  0% {
    -webkit-transform: scale(0.86);
    transform: scale(0.86);
  }
  50% {
    -webkit-transform: scale(1.06);
    transform: scale(1.06);
  }
  100% {
    -webkit-transform: scale(0.86);
    transform: scale(0.86);
  }
}
@-webkit-keyframes ld-breath {
  0% {
    -webkit-transform: scale(0.86);
    transform: scale(0.86);
  }
  50% {
    -webkit-transform: scale(1.06);
    transform: scale(1.06);
  }
  100% {
    -webkit-transform: scale(0.86);
    transform: scale(0.86);
  }
}
.ld.ld-breath {
  -webkit-animation: ld-breath 1s infinite;
  animation: ld-breath 1s infinite;
}</style></svg>