<svg version="1.1" id="Layer_1" xmlns="http://www.w3.org/2000/svg" xmlns:xlink="http://www.w3.org/1999/xlink" x="0px" y="0px" viewBox="0 0 100 100" style="transform-origin: 50px 50px 0px;" xml:space="preserve"><g style="transform-origin: 50px 50px 0px;"><g style="transform-origin: 50px 50px 0px; transform: scale(0.6);"><g style="transform-origin: 50px 50px 0px;"><g><style type="text/css" style="transform-origin: 50px 50px 0px; animation-duration: 1s; animation-delay: -1s; animation-direction: normal;" class="ld ld-spin">.st0{fill:#F4E6C8;} .st1{opacity:0.8;fill:#849B87;} .st2{fill:#D65A62;} .st3{fill:#E15C64;} .st4{fill:#F47E5F;} .st5{fill:#F7B26A;} .st6{fill:#FEE8A2;} .st7{fill:#ACBD81;} .st8{fill:#F5E169;} .st9{fill:#F0AF6B;} .st10{fill:#EA7C60;} .st11{fill:#A8B980;} .st12{fill:#829985;} .st13{fill:#798AAE;} .st14{fill:#8672A7;} .st15{fill:#CC5960;} .st16{fill:#E17A5F;} .st17{fill:#849B87;} .st18{opacity:0.8;fill:#E15C64;} .st19{opacity:0.8;fill:#F7B26A;} .st20{fill:#79A5B5;} .st21{opacity:0.8;fill:#79A5B4;} .st22{fill:#666766;}</style><g style="transform-origin: 50px 50px 0px; animation-duration: 1s; animation-delay: -0.933333s; animation-direction: normal;" class="ld ld-spin"><path class="st9" d="M51.2,18.5l0.5-12C46,6.3,40.3,7.2,34.9,9.2l4.2,11.3C43,19,47.1,18.4,51.2,18.5z" fill="rgb(240, 175, 107)" style="fill: rgb(240, 175, 107);"></path></g><g style="transform-origin: 50px 50px 0px; animation-duration: 1s; animation-delay: -0.866667s; animation-direction: normal;" class="ld ld-spin"><path class="st11" d="M34.3,22.7c0.8-0.5,1.7-0.9,2.6-1.3l-5-10.9c-1.2,0.6-2.4,1.2-3.6,1.8c-3.8,2.2-7.2,4.9-10.1,8.1l8.8,8.2 C29,26.3,31.5,24.3,34.3,22.7z" fill="rgb(168, 185, 128)" style="fill: rgb(168, 185, 128);"></path></g><g style="transform-origin: 50px 50px 0px; animation-duration: 1s; animation-delay: -0.8s; animation-direction: normal;" class="ld ld-spin"><path class="st12" d="M25.3,30.4L15.9,23c-3.5,4.5-6.1,9.5-7.7,15l11.5,3.3C20.9,37.3,22.7,33.7,25.3,30.4z" fill="rgb(130, 153, 133)" style="fill: rgb(130, 153, 133);"></path></g><g style="transform-origin: 50px 50px 0px; animation-duration: 1s; animation-delay: -0.733333s; animation-direction: normal;" class="ld ld-spin"><path class="st10" d="M71.1,12c-5-2.8-10.4-4.5-16.1-5.2l-1.4,11.9c4.1,0.5,8,1.7,11.7,3.8L71.1,12z" fill="rgb(234, 124, 96)" style="fill: rgb(234, 124, 96);"></path></g><g style="transform-origin: 50px 50px 0px; animation-duration: 1s; animation-delay: -0.666667s; animation-direction: normal;" class="ld ld-spin"><path class="st2" d="M87.7,28.3c-1.9-3.3-4.2-6.3-6.9-9l0,0c-2-2.1-4.3-3.9-6.7-5.5l-6.6,10c1.7,1.2,3.4,2.5,4.9,4l0,0 c1.9,2,3.6,4.1,5,6.5C80,39,81.5,44.5,81.5,50c0,11.2-6,21.7-15.7,27.3c-9,5.2-19.7,5.6-28.9,1.4l3.8-3.9l-23.2-6l6.4,23.1l4.2-4.3 c6.8,4,14.3,6,21.9,6c7.5,0,15-2,21.8-5.9C85.2,79.9,93.5,65.5,93.5,50C93.5,42.4,91.5,34.9,87.7,28.3z" fill="rgb(214, 90, 98)" style="fill: rgb(214, 90, 98);"></path></g><metadata xmlns:d="https://loading.io/stock/" style="transform-origin: 50px 50px 0px; animation-duration: 1s; animation-delay: -0.6s; animation-direction: normal;" class="ld ld-spin">
<d:name style="transform-origin: 50px 50px 0px; animation-duration: 1s; animation-delay: -0.533333s; animation-direction: normal;" class="ld ld-spin">reload</d:name>
<d:tags style="transform-origin: 50px 50px 0px; animation-duration: 1s; animation-delay: -0.466667s; animation-direction: normal;" class="ld ld-spin">recycle,adjust,change,refresh,sync,manipulate,regulate,reload,spinner</d:tags>
<d:license style="transform-origin: 50px 50px 0px; animation-duration: 1s; animation-delay: -0.4s; animation-direction: normal;" class="ld ld-spin">rf</d:license>
<d:slug style="transform-origin: 50px 50px 0px; animation-duration: 1s; animation-delay: -0.333333s; animation-direction: normal;" class="ld ld-spin">7gdjj2</d:slug>
</metadata></g></g></g></g><style type="text/css" style="transform-origin: 50px 50px 0px; animation-duration: 1s; animation-delay: -0.266667s; animation-direction: normal;" class="ld ld-spin">@keyframes ld-spin {
  0% {
    -webkit-transform: rotate(0);
    transform: rotate(0);
    animation-timing-function: cubic-bezier(0.55, 0.055, 0.675, 0.19);
  }
  50% {
    -webkit-transform: rotate(180deg);
    transform: rotate(180deg);
    animation-timing-function: cubic-bezier(0.215, 0.61, 0.355, 1);
  }
  100% {
    -webkit-transform: rotate(360deg);
    transform: rotate(360deg);
  }
}
@-webkit-keyframes ld-spin {
  0% {
    -webkit-transform: rotate(0);
    transform: rotate(0);
    animation-timing-function: cubic-bezier(0.55, 0.055, 0.675, 0.19);
  }
  50% {
    -webkit-transform: rotate(180deg);
    transform: rotate(180deg);
    animation-timing-function: cubic-bezier(0.215, 0.61, 0.355, 1);
  }
  100% {
    -webkit-transform: rotate(360deg);
    transform: rotate(360deg);
  }
}
.ld.ld-spin {
  -webkit-animation: ld-spin 1s infinite;
  animation: ld-spin 1s infinite;
}
</style></svg>