<svg xmlns="http://www.w3.org/2000/svg" xmlns:xlink="http://www.w3.org/1999/xlink" version="1.1" id="_1" x="0px" y="0px" viewBox="0 0 100 100" xml:space="preserve" class="" style="x:0px;webkit-transform-origin:50px 50px;webkit-perspective-origin:0px 0px;transform-origin:50px 50px;transform:none;r:0px;pointer-events:all;perspective-origin:0px 0px;overflow-y:hidden;overflow-x:hidden;overflow:hidden;display:block"><g class="" style="x:0px;webkit-transform-origin:50px 50px;webkit-perspective-origin:0px 0px;transform-origin:50px 50px;transform:none;r:0px;pointer-events:all;perspective-origin:0px 0px"><g class="" style="x:0px;webkit-transform-origin:50px 50px;webkit-transform:matrix(0.6, 0, 0, 0.6, 0, 0);webkit-perspective-origin:0px 0px;transform-origin:50px 50px;transform:matrix(0.6, 0, 0, 0.6, 0, 0);r:0px;pointer-events:all;perspective-origin:0px 0px"><g class="" style="x:0px;webkit-transform-origin:50px 50px;webkit-perspective-origin:0px 0px;transform-origin:50px 50px;transform:none;r:0px;pointer-events:all;perspective-origin:0px 0px"><g class="" style="webkit-perspective-origin:0px 0px;pointer-events:all;perspective-origin:0px 0px"><style type="text/css" class="ld " style="y:0px;x:0px;webkit-transform-origin:50px 50px;webkit-animation-duration:1s;webkit-animation-delay:-1s;webkit-animation:1s ease -1s 1 normal none running none;transform-origin:50px 50px;transform:none;r:0px;pointer-events:all;direction:ltr;d:none">.st0{fill:none;stroke:#333;stroke-width:3.5;stroke-miterlimit:10}.st1{fill:#666}.st1,.st2,.st3,.st4{stroke:#333;stroke-width:3.5;stroke-miterlimit:10}.st2{stroke-linecap:round;fill:#666}.st3,.st4{fill:#e15b64}.st4{fill:#666;stroke-linecap:round;stroke-linejoin:round}.st5{fill:#f47e60}.st6{opacity:.2}.st7{fill:none;stroke:#fff;stroke-width:3.5;stroke-linecap:round;stroke-miterlimit:10}.st8{fill:#e0e0e0;stroke:#333}.st10,.st11,.st8,.st9{stroke-width:3.5;stroke-miterlimit:10}.st9{opacity:.2;stroke:#000}.st10,.st11{fill:#a0c8d7;stroke:#333}.st11{fill:#333}.st12{fill:#e0e0e0}.st13{fill:#f8b26a}.st14,.st15{fill:#a0c8d7;stroke:#fff;stroke-width:3.5;stroke-linecap:round;stroke-miterlimit:10}.st15{fill:#f5e6c8;stroke:#333}.st16{fill:#fff}.st16,.st17,.st18{stroke:#333;stroke-width:3.5;stroke-miterlimit:10}.st17{stroke-dasharray:3,3;fill:none}.st18{fill:#f5e6c8}.st19,.st20{fill:none;stroke-linecap:round}.st19{stroke:#333;stroke-width:3.5;stroke-miterlimit:10}.st20{stroke-dasharray:3.837,5.7554}.st20,.st21,.st22{stroke:#333;stroke-width:3.5;stroke-miterlimit:10}.st21{stroke-linecap:round;stroke-dasharray:4,6;fill:none}.st22{fill:#f5e169}.st23{fill:#333}.st24{fill:#fff}.st25,.st26,.st27{fill:none;stroke:#333;stroke-miterlimit:10}.st25{stroke-dasharray:3.733,3.733;stroke-width:3.5}.st26,.st27{stroke-width:7}.st27{fill:#f8b26a;stroke-width:3.5}.st28,.st29{fill:#f5e6c8}.st29{stroke:#fff;stroke-linecap:round}.st29,.st30,.st31,.st32,.st33{stroke-width:3.5;stroke-miterlimit:10}.st30{opacity:.2;stroke-linecap:round;stroke:#000}.st31,.st32,.st33{fill:#abbd81;stroke:#333}.st32,.st33{fill:none;stroke:#e0e0e0;stroke-width:7}.st33{fill:#849b87;stroke:#333;stroke-width:3.5}.st34{fill:#abbd81}.st35,.st36,.st37{opacity:.2;stroke:#000;stroke-width:3.5;stroke-miterlimit:10}.st35{stroke-linecap:round;stroke-linejoin:round}.st36,.st37{fill:#abbd81}.st37{fill:#f8b26a}.st38{fill:url(#SVGID_1_);stroke:#333}.st38,.st39,.st40,.st41{stroke-width:3.5;stroke-miterlimit:10}.st39{opacity:.2;stroke-linejoin:round;stroke:#000}.st40,.st41{fill:#77a4bd;stroke:#333}.st41{fill:none;stroke-linecap:round;stroke-dasharray:3.5707,5.356}.st42{fill:#f2f2f2}.st43,.st44,.st45{stroke-width:3.5;stroke-miterlimit:10}.st43{stroke:#333;fill:url(#SVGID_2_)}.st44,.st45{fill:none;stroke-linecap:round}.st44{stroke-linejoin:round;stroke:#333}.st45{stroke:#e0e0e0}.st46{fill:url(#SVGID_3_);stroke:#333}.st46,.st47,.st48,.st49{stroke-width:3.5;stroke-miterlimit:10}.st47{stroke-linecap:round;stroke-linejoin:round;fill:none;stroke:#fff}.st48,.st49{fill:url(#SVGID_4_);stroke:#333}.st49{fill:url(#SVGID_5_)}.st50,.st51{fill:none;stroke-width:3.5}.st50{stroke-linecap:round;stroke-linejoin:round;stroke-miterlimit:10;stroke:#f8b26a}.st51{stroke:#e0e0e0}.st51,.st52,.st53,.st54{stroke-miterlimit:10}.st52{stroke-width:12;fill:none;stroke:#e15b64}.st53,.st54{fill:#333;stroke:#333}.st54{fill:none;stroke-width:3;stroke-linecap:round}.st55{opacity:.5}.st56{fill:none;stroke:#000;stroke-linecap:round;stroke-miterlimit:10}.st57{fill:#e15b64}.st58,.st59{stroke-miterlimit:10}.st58{stroke-linecap:round;fill:none;stroke:#fff;stroke-width:3}.st59{fill:#f47e60;stroke:#333;stroke-width:3.5}.st60,.st61{stroke-linecap:round}.st60{stroke:#333;stroke-width:3.5;stroke-miterlimit:10;fill:#fff}.st61{fill:#333}.st61,.st62,.st63,.st64,.st65,.st66,.st67,.st68{stroke:#333;stroke-width:3.5;stroke-miterlimit:10}.st63,.st64,.st65,.st66,.st67,.st68{fill:#f5e169;stroke-linecap:round}.st64,.st65,.st66,.st67,.st68{fill:none;stroke:#f8b26a}.st65,.st66,.st67,.st68{fill:#abbd81;stroke:#333}.st66,.st67,.st68{fill:#a0c8d7}.st67,.st68{fill:#f47e60}.st68{fill:#c33737}</style>
<g class="ld " style="y:0px;x:0px;webkit-transform-origin:50px 50px;webkit-perspective-origin:0px 0px;webkit-animation-duration:1s;webkit-animation-delay:-0.954545s;webkit-animation:1s ease -0.954545s 1 normal none running none;transform-origin:50px 50px;transform:none;r:0px;pointer-events:all;perspective-origin:0px 0px;direction:ltr;d:none"><rect x="5.375" y="27.469" class="st8" width="89.25" height="45.063" fill="rgb(224, 224, 224)" stroke="rgb(51, 51, 51)" style="y:27.469px;x:5.375px;width:89.25px;webkit-perspective-origin:0px 0px;webkit-logical-width:89.25px;webkit-logical-height:45.063px;stroke-width:3.5px;stroke-miterlimit:10;stroke:rgb(51, 51, 51);r:0px;pointer-events:all;perspective-origin:0px 0px;inline-size:89.25px;height:45.063px;fill:rgb(224, 224, 224);block-size:45.063px"/></g>
<g class="ld " style="y:0px;x:0px;webkit-transform-origin:50px 50px;webkit-perspective-origin:0px 0px;webkit-animation-duration:1s;webkit-animation-delay:-0.909091s;webkit-animation:1s ease -0.909091s 1 normal none running none;transform-origin:50px 50px;transform:none;r:0px;pointer-events:all;perspective-origin:0px 0px;direction:ltr;d:none"><polyline class="st3" points="68.25,72.531 94.625,72.531 94.625,27.469 68.25,27.469 " stroke="rgb(51, 51, 51)" fill="rgb(225, 91, 100)" style="webkit-perspective-origin:0px 0px;stroke-width:3.5px;stroke-miterlimit:10;stroke:rgb(51, 51, 51);r:0px;pointer-events:all;perspective-origin:0px 0px;fill:rgb(225, 91, 100)"/></g>
<g class="" style="x:0px;webkit-transform-origin:50px 50px;webkit-perspective-origin:0px 0px;transform-origin:50px 50px;transform:none;r:0px;pointer-events:all;perspective-origin:0px 0px"><g class="" style="webkit-perspective-origin:0px 0px;pointer-events:all;perspective-origin:0px 0px"><g class="" style="x:0px;webkit-transform-origin:50px 50px;webkit-perspective-origin:0px 0px;transform-origin:50px 50px;transform:none;r:0px;pointer-events:all;perspective-origin:0px 0px"><g class="" style="webkit-perspective-origin:0px 0px;pointer-events:all;perspective-origin:0px 0px"><g class="ld " style="y:0px;x:0px;webkit-transform-origin:50px 50px;webkit-perspective-origin:0px 0px;webkit-animation-duration:1s;webkit-animation-delay:-0.863636s;webkit-animation:1s ease -0.863636s 1 normal none running none;transform-origin:50px 50px;transform:none;r:0px;pointer-events:all;perspective-origin:0px 0px;direction:ltr;d:none"><line class="st0" x1="68.25" y1="27.469" x2="68.25" y2="29.469" stroke="rgb(51, 51, 51)" style="webkit-perspective-origin:0px 0px;stroke-width:3.5px;stroke-miterlimit:10;stroke:rgb(51, 51, 51);r:0px;pointer-events:all;perspective-origin:0px 0px;fill:none"/></g>
<g class="ld " style="y:0px;x:0px;webkit-transform-origin:50px 50px;webkit-perspective-origin:0px 0px;webkit-animation-duration:1s;webkit-animation-delay:-0.818182s;webkit-animation:1s ease -0.818182s 1 normal none running none;transform-origin:50px 50px;transform:none;r:0px;pointer-events:all;perspective-origin:0px 0px;direction:ltr;d:none"><line class="st25" x1="68.25" y1="33.202" x2="68.25" y2="68.665" stroke="rgb(51, 51, 51)" style="webkit-perspective-origin:0px 0px;stroke-width:3.5px;stroke-miterlimit:10;stroke-dasharray:3.733px, 3.733px;stroke:rgb(51, 51, 51);r:0px;pointer-events:all;perspective-origin:0px 0px;fill:none"/></g>
<g class="ld " style="y:0px;x:0px;webkit-transform-origin:50px 50px;webkit-perspective-origin:0px 0px;webkit-animation-duration:1s;webkit-animation-delay:-0.772727s;webkit-animation:1s ease -0.772727s 1 normal none running none;transform-origin:50px 50px;transform:none;r:0px;pointer-events:all;perspective-origin:0px 0px;direction:ltr;d:none"><line class="st0" x1="68.25" y1="70.531" x2="68.25" y2="72.531" stroke="rgb(51, 51, 51)" style="webkit-perspective-origin:0px 0px;stroke-width:3.5px;stroke-miterlimit:10;stroke:rgb(51, 51, 51);r:0px;pointer-events:all;perspective-origin:0px 0px;fill:none"/></g></g></g></g></g>
<g class="ld " style="y:0px;x:0px;webkit-transform-origin:50px 50px;webkit-perspective-origin:0px 0px;webkit-animation-duration:1s;webkit-animation-delay:-0.727273s;webkit-animation:1s ease -0.727273s 1 normal none running none;transform-origin:50px 50px;transform:none;r:0px;pointer-events:all;perspective-origin:0px 0px;direction:ltr;d:none"><line class="st0" x1="14.25" y1="37.393" x2="56" y2="37.393" stroke="rgb(51, 51, 51)" style="webkit-perspective-origin:0px 0px;stroke-width:3.5px;stroke-miterlimit:10;stroke:rgb(51, 51, 51);r:0px;pointer-events:all;perspective-origin:0px 0px;fill:none"/></g>
<g class="ld " style="y:0px;x:0px;webkit-transform-origin:50px 50px;webkit-perspective-origin:0px 0px;webkit-animation-duration:1s;webkit-animation-delay:-0.681818s;webkit-animation:1s ease -0.681818s 1 normal none running none;transform-origin:50px 50px;transform:none;r:0px;pointer-events:all;perspective-origin:0px 0px;direction:ltr;d:none"><line class="st0" x1="14.25" y1="46.393" x2="56" y2="46.393" stroke="rgb(51, 51, 51)" style="webkit-perspective-origin:0px 0px;stroke-width:3.5px;stroke-miterlimit:10;stroke:rgb(51, 51, 51);r:0px;pointer-events:all;perspective-origin:0px 0px;fill:none"/></g>
<g class="ld " style="y:0px;x:0px;webkit-transform-origin:50px 50px;webkit-perspective-origin:0px 0px;webkit-animation-duration:1s;webkit-animation-delay:-0.636364s;webkit-animation:1s ease -0.636364s 1 normal none running none;transform-origin:50px 50px;transform:none;r:0px;pointer-events:all;perspective-origin:0px 0px;direction:ltr;d:none"><line class="st0" x1="14.25" y1="55.393" x2="33.75" y2="55.393" stroke="rgb(51, 51, 51)" style="webkit-perspective-origin:0px 0px;stroke-width:3.5px;stroke-miterlimit:10;stroke:rgb(51, 51, 51);r:0px;pointer-events:all;perspective-origin:0px 0px;fill:none"/></g>
<g class="ld " style="y:0px;x:0px;webkit-transform-origin:50px 50px;webkit-perspective-origin:0px 0px;webkit-animation-duration:1s;webkit-animation-delay:-0.590909s;webkit-animation:1s ease -0.590909s 1 normal none running none;transform-origin:50px 50px;transform:none;r:0px;pointer-events:all;perspective-origin:0px 0px;direction:ltr;d:none"><line class="st26" x1="83.5" y1="35.25" x2="83.5" y2="64.75" stroke="rgb(51, 51, 51)" style="webkit-perspective-origin:0px 0px;stroke-width:7px;stroke-miterlimit:10;stroke:rgb(51, 51, 51);r:0px;pointer-events:all;perspective-origin:0px 0px;fill:none"/></g>
<g class="ld " style="y:0px;x:0px;webkit-transform-origin:50px 50px;webkit-perspective-origin:0px 0px;webkit-animation-duration:1s;webkit-animation-delay:-0.545455s;webkit-animation:1s ease -0.545455s 1 normal none running none;transform-origin:50px 50px;transform:none;r:0px;pointer-events:all;perspective-origin:0px 0px;direction:ltr;d:none"><polygon class="st9" points="39.202,72.531 94.625,72.531 94.625,27.469 51.697,27.469 " fill="rgb(0, 0, 0)" stroke="rgb(0, 0, 0)" style="webkit-perspective-origin:0px 0px;webkit-opacity:0.2;stroke-width:3.5px;stroke-miterlimit:10;stroke:rgb(0, 0, 0);r:0px;pointer-events:all;perspective-origin:0px 0px;opacity:0.2;fill:rgb(0, 0, 0)"/></g>
<metadata xmlns:d="https://loading.io/stock/" class="ld " style="y:0px;x:0px;webkit-transform-origin:50px 50px;webkit-animation-duration:1s;webkit-animation-delay:-0.5s;webkit-animation:1s ease -0.5s 1 normal none running none;transform-origin:50px 50px;transform:none;r:0px;pointer-events:all;direction:ltr;d:none"><d:name class="ld " style="y:0px;x:0px;webkit-transform-origin:50px 50px;webkit-animation-duration:1s;webkit-animation-delay:-0.454545s;webkit-animation:1s ease -0.454545s 1 normal none running none;transform-origin:50px 50px;transform:none;r:0px;pointer-events:all;direction:ltr;d:none">ticket</d:name>


<d:tags class="ld " style="y:0px;x:0px;webkit-transform-origin:50px 50px;webkit-animation-duration:1s;webkit-animation-delay:-0.409091s;webkit-animation:1s ease -0.409091s 1 normal none running none;transform-origin:50px 50px;transform:none;r:0px;pointer-events:all;direction:ltr;d:none">ticket,admission,badge,passport,permission,certificate,receipt,coupon,token,voucher,access card</d:tags>


<d:license class="ld " style="y:0px;x:0px;webkit-transform-origin:50px 50px;webkit-animation-duration:1s;webkit-animation-delay:-0.363636s;webkit-animation:1s ease -0.363636s 1 normal none running none;transform-origin:50px 50px;transform:none;r:0px;pointer-events:all;direction:ltr;d:none">cc-by</d:license>


<d:slug class="ld " style="y:0px;x:0px;webkit-transform-origin:50px 50px;webkit-animation-duration:1s;webkit-animation-delay:-0.318182s;webkit-animation:1s ease -0.318182s 1 normal none running none;transform-origin:50px 50px;transform:none;r:0px;pointer-events:all;direction:ltr;d:none">q0f0eq</d:slug></metadata></g></g></g></g>
<style type="text/css" class="ld " style="y:0px;x:0px;webkit-transform-origin:50px 50px;webkit-animation-duration:1s;webkit-animation-delay:-0.272727s;webkit-animation:1s ease -0.272727s 1 normal none running none;transform-origin:50px 50px;transform:none;r:0px;pointer-events:all;direction:ltr;d:none">@keyframes ld-fade {
  0% {
    opacity: 1;
  }
  100% {
    opacity: 0;
  }
}
@-webkit-keyframes ld-fade {
  0% {
    opacity: 1;
  }
  100% {
    opacity: 0;
  }
}
.ld.ld-fade {
  -webkit-animation: ld-fade 1s infinite linear;
  animation: ld-fade 1s infinite linear;
}</style></svg>